<svg version="1.1" class="linked-in" xmlns="http://www.w3.org/2000/svg" xmlns:xlink="http://www.w3.org/1999/xlink" x="0px" y="0px"
	 viewBox="0 0 590 592.211" enable-background="new 0 0 590 592.211" xml:space="preserve">
	<style>
		.linked-in .icon-shadow {
			fill : #023E51
		}
		.linked-in .icon-body {
			fill : #047CB7;
		}
	</style>
	<g>
		<g>
			<path class="icon-shadow" d="M590,297.211c0,162.92-132.08,295-295,295s-295-132.08-295-295c0-162.916,132.08-295,295-295
				S590,134.295,590,297.211z"/>
		</g>
		<g>
			<path class="icon-body" d="M590,295c0,162.92-132.08,295-295,295S0,457.92,0,295C0,132.084,132.08,0,295,0S590,132.084,590,295z"/>
		</g>
	</g>
	<path fill="#FFFFFF" d="M156.78,228.359h59.864v192.528H156.78V228.359z M186.717,132.644c19.13,0,34.678,15.549,34.678,34.687
		c0,19.158-15.549,34.706-34.678,34.706c-19.184,0-34.686-15.548-34.686-34.706C152.031,148.193,167.533,132.644,186.717,132.644"/>
	<path fill="#FFFFFF" d="M254.175,228.359h57.406v26.297h0.817c7.987-15.134,27.515-31.097,56.622-31.097
		c60.552,0,71.736,39.868,71.736,91.728v105.601h-59.768v-93.622c0-22.342-0.435-51.059-31.101-51.059
		c-31.142,0-35.892,24.328-35.892,49.439v95.242h-59.818V228.359z"/>
</svg>
