<svg version="1.1" id="Layer_1" xmlns:svg="http://www.w3.org/2000/svg"
	 xmlns="http://www.w3.org/2000/svg" xmlns:xlink="http://www.w3.org/1999/xlink" x="0px" y="0px"
	 viewBox="246.778 2.177 702.344 837.536" enable-background="new 246.778 2.177 702.344 837.536" xml:space="preserve">
<g>
	<title>Person</title>
	<path id="svg_1" fill="#F9F9F9" d="M726.651,406.079c62.539-39.586,103.701-106.838,103.701-183.31
		c0-121.781-104.544-220.592-233.496-220.592s-233.496,98.81-233.496,220.592c0,79.335,44.697,148.253,111.274,187.126
		c-127.016,46.345-227.855,157.316-227.855,285.856c0,169.477,66.244,142.37,367.756,142.37
		c302.519,0,334.588,24.087,334.588-145.39C949.04,546.224,851.986,445.905,726.651,406.079z"/>
</g>
</svg>
